{
    "classDefinitions": [
        {
            "classname": "Product",
            "fieldname": "specificAttributes"
        }
    ],
    "title": null,
    "group": null,
    "parentClass": "",
    "layoutDefinitions": {
        "fieldtype": "panel",
        "labelWidth": 100,
        "layout": null,
        "name": null,
        "type": null,
        "region": null,
        "title": null,
        "width": null,
        "height": null,
        "collapsible": false,
        "collapsed": false,
        "bodyStyle": null,
        "datatype": "layout",
        "permissions": null,
        "childs": [
            {
                "fieldtype": "panel",
                "labelWidth": 150,
                "layout": "",
                "name": "Layout",
                "type": null,
                "region": "",
                "title": "",
                "width": null,
                "height": null,
                "collapsible": false,
                "collapsed": false,
                "bodyStyle": "",
                "datatype": "layout",
                "permissions": null,
                "childs": [
                    {
                        "fieldtype": "input",
                        "width": 300,
                        "queryColumnType": "varchar",
                        "columnType": "varchar",
                        "columnLength": 255,
                        "phpdocType": "string",
                        "regex": "",
                        "unique": null,
                        "showCharCount": null,
                        "name": "volume",
                        "title": "<img style=\"height:40px; float:left; margin:-10px 10px 0 0\" src=\"\/static\/backend\/img\/bricks\/rucksacks-specs\/volume.png\"\/> Volume",
                        "tooltip": "",
                        "mandatory": false,
                        "noteditable": false,
                        "index": false,
                        "locked": false,
                        "style": "",
                        "permissions": null,
                        "datatype": "data",
                        "relationType": false,
                        "invisible": false,
                        "visibleGridView": false,
                        "visibleSearch": false
                    },
                    {
                        "fieldtype": "input",
                        "width": 300,
                        "queryColumnType": "varchar",
                        "columnType": "varchar",
                        "columnLength": 255,
                        "phpdocType": "string",
                        "regex": "",
                        "unique": null,
                        "showCharCount": null,
                        "name": "weight",
                        "title": "<img style=\"height:40px; float:left; margin:-10px 10px 0 0\" src=\"\/static\/backend\/img\/bricks\/rucksacks-specs\/weight.png\"\/> Weight",
                        "tooltip": "",
                        "mandatory": false,
                        "noteditable": false,
                        "index": false,
                        "locked": false,
                        "style": "",
                        "permissions": null,
                        "datatype": "data",
                        "relationType": false,
                        "invisible": false,
                        "visibleGridView": false,
                        "visibleSearch": false
                    },
                    {
                        "fieldtype": "input",
                        "width": 300,
                        "queryColumnType": "varchar",
                        "columnType": "varchar",
                        "columnLength": 255,
                        "phpdocType": "string",
                        "regex": "",
                        "unique": null,
                        "showCharCount": null,
                        "name": "load",
                        "title": "<img style=\"height:40px; float:left; margin:-10px 10px 0 0\" src=\"\/static\/backend\/img\/bricks\/rucksacks-specs\/load.png\"\/> Load",
                        "tooltip": "",
                        "mandatory": false,
                        "noteditable": false,
                        "index": false,
                        "locked": false,
                        "style": "",
                        "permissions": null,
                        "datatype": "data",
                        "relationType": false,
                        "invisible": false,
                        "visibleGridView": false,
                        "visibleSearch": false
                    },
                    {
                        "fieldtype": "input",
                        "width": 300,
                        "queryColumnType": "varchar",
                        "columnType": "varchar",
                        "columnLength": 255,
                        "phpdocType": "string",
                        "regex": "",
                        "unique": null,
                        "showCharCount": null,
                        "name": "material",
                        "title": "<img style=\"height:40px; float:left; margin:-10px 10px 0 0\" src=\"\/static\/backend\/img\/bricks\/rucksacks-specs\/material.png\"\/> Material",
                        "tooltip": "",
                        "mandatory": false,
                        "noteditable": false,
                        "index": false,
                        "locked": false,
                        "style": "",
                        "permissions": null,
                        "datatype": "data",
                        "relationType": false,
                        "invisible": false,
                        "visibleGridView": false,
                        "visibleSearch": false
                    },
                    {
                        "fieldtype": "input",
                        "width": 300,
                        "queryColumnType": "varchar",
                        "columnType": "varchar",
                        "columnLength": 255,
                        "phpdocType": "string",
                        "regex": "",
                        "unique": null,
                        "showCharCount": null,
                        "name": "expandTo",
                        "title": "<img style=\"height:40px; float:left; margin:-10px 10px 0 0\" src=\"\/static\/backend\/img\/bricks\/rucksacks-specs\/expand.png\"\/> Expand",
                        "tooltip": "",
                        "mandatory": false,
                        "noteditable": false,
                        "index": false,
                        "locked": false,
                        "style": "",
                        "permissions": null,
                        "datatype": "data",
                        "relationType": false,
                        "invisible": false,
                        "visibleGridView": false,
                        "visibleSearch": false
                    }
                ],
                "locked": false
            }
        ],
        "locked": false
    }
}