{
    "classDefinitions": [
        {
            "classname": "Product",
            "fieldname": "specificAttributes"
        }
    ],
    "title": null,
    "group": null,
    "parentClass": "",
    "layoutDefinitions": {
        "fieldtype": "panel",
        "labelWidth": 100,
        "layout": null,
        "name": null,
        "type": null,
        "region": null,
        "title": null,
        "width": null,
        "height": null,
        "collapsible": false,
        "collapsed": false,
        "bodyStyle": null,
        "datatype": "layout",
        "permissions": null,
        "childs": [
            {
                "fieldtype": "panel",
                "labelWidth": 100,
                "layout": "",
                "name": "Layout",
                "type": null,
                "region": "",
                "title": "",
                "width": "",
                "height": "",
                "collapsible": false,
                "collapsed": false,
                "bodyStyle": "",
                "datatype": "layout",
                "permissions": null,
                "childs": [
                    {
                        "fieldtype": "multiselect",
                        "options": [
                            {
                                "key": "<img src=\"\/static\/backend\/img\/bricks\/details\/icon_01.png\"\/> Die-cut EVA midsole",
                                "value": "details.die-cut-eva-midsole"
                            },
                            {
                                "key": "<img src=\"\/static\/backend\/img\/bricks\/details\/icon_02.png\"\/> Rubber toe protection",
                                "value": "details.rubber-toe-protection"
                            },
                            {
                                "key": "<img src=\"\/static\/backend\/img\/bricks\/details\/icon_03.png\"\/> Pro lacing system",
                                "value": "details.pro-lacing-system"
                            },
                            {
                                "key": "<img src=\"\/static\/backend\/img\/bricks\/details\/icon_04.png\"\/> Heel protector a",
                                "value": "details.heel-protector-a"
                            },
                            {
                                "key": "<img src=\"\/static\/backend\/img\/bricks\/details\/icon_05.png\"\/> Heel protector b",
                                "value": "details.heel-protector-b"
                            },
                            {
                                "key": "<img src=\"\/static\/backend\/img\/bricks\/details\/icon_06.png\"\/> Comfort lacing system",
                                "value": "details.comfort-lacing-system"
                            },
                            {
                                "key": "<img src=\"\/static\/backend\/img\/bricks\/details\/icon_07.png\"\/> Stabilizer",
                                "value": "details.stabilizer"
                            },
                            {
                                "key": "<img src=\"\/static\/backend\/img\/bricks\/details\/icon_08.png\"\/> Molded EVA midsole",
                                "value": "details.molded-eva-midsole"
                            },
                            {
                                "key": "<img src=\"\/static\/backend\/img\/bricks\/details\/icon_09.png\"\/> Multigrip sole",
                                "value": "details.multigrip-sole"
                            },
                            {
                                "key": "<img src=\"\/static\/backend\/img\/bricks\/details\/icon_10.png\"\/> Water-flow insole",
                                "value": "details.water-flow-insole"
                            },
                            {
                                "key": "<img src=\"\/static\/backend\/img\/bricks\/details\/icon_11.png\"\/> Comfort cushion system",
                                "value": "details.comfort-cushion-system"
                            },
                            {
                                "key": "<img src=\"\/static\/backend\/img\/bricks\/details\/icon_12.png\"\/> Flex zone",
                                "value": "details.flex-zone"
                            },
                            {
                                "key": "<img src=\"\/static\/backend\/img\/bricks\/details\/icon_13.png\"\/> Microfibre footbed",
                                "value": "details.microfibre-footbed"
                            },
                            {
                                "key": "<img src=\"\/static\/backend\/img\/bricks\/details\/icon_14.png\"\/> EVA footbed",
                                "value": "details.eva-footbed"
                            },
                            {
                                "key": "<img src=\"\/static\/backend\/img\/bricks\/details\/icon_15.png\"\/> Crampon compatible",
                                "value": "details.crampon-compatible"
                            },
                            {
                                "key": "<img src=\"\/static\/backend\/img\/bricks\/details\/icon_16.png\"\/> 2nd density midsole",
                                "value": "details.2nd-density-midsole"
                            },
                            {
                                "key": "<img src=\"\/static\/backend\/img\/bricks\/details\/icon_17.png\"\/> Vibram",
                                "value": "details.vibram"
                            }
                        ],
                        "width": 800,
                        "height": 400,
                        "maxItems": "",
                        "renderType": null,
                        "optionsProviderClass": null,
                        "optionsProviderData": null,
                        "queryColumnType": "text",
                        "columnType": "text",
                        "phpdocType": "array",
                        "name": "specs",
                        "title": "",
                        "tooltip": "",
                        "mandatory": false,
                        "noteditable": false,
                        "index": false,
                        "locked": false,
                        "style": "",
                        "permissions": null,
                        "datatype": "data",
                        "relationType": false,
                        "invisible": false,
                        "visibleGridView": false,
                        "visibleSearch": false
                    }
                ],
                "locked": false
            }
        ],
        "locked": false
    }
}