{
    "parentClass": "",
    "title": "",
    "group": "SBD",
    "layoutDefinitions": {
        "fieldtype": "panel",
        "labelWidth": 100,
        "layout": null,
        "name": null,
        "type": null,
        "region": null,
        "title": null,
        "width": null,
        "height": null,
        "collapsible": false,
        "collapsed": false,
        "bodyStyle": null,
        "datatype": "layout",
        "permissions": null,
        "childs": [
            {
                "fieldtype": "panel",
                "labelWidth": 250,
                "layout": null,
                "name": "emissions",
                "type": null,
                "region": null,
                "title": "Emissions",
                "width": null,
                "height": null,
                "collapsible": false,
                "collapsed": false,
                "bodyStyle": "",
                "datatype": "layout",
                "permissions": null,
                "childs": [
                    {
                        "fieldtype": "select",
                        "options": [
                            {
                                "key": "Bohren in Metall",
                                "value": "0"
                            },
                            {
                                "key": "Schlagbohren in Beton",
                                "value": "1"
                            },
                            {
                                "key": "Bohren in Beton",
                                "value": "2"
                            },
                            {
                                "key": "Diamantbohren",
                                "value": "3"
                            },
                            {
                                "key": "Rotationsbohren",
                                "value": "4"
                            },
                            {
                                "key": "Schrauben",
                                "value": "5"
                            },
                            {
                                "key": "Schlagbohren in Mauerwerk",
                                "value": "6"
                            },
                            {
                                "key": "S\u00e4gen von Holz",
                                "value": "7"
                            },
                            {
                                "key": "Steins\u00e4gen",
                                "value": "8"
                            },
                            {
                                "key": "Hammerbohren in Beton",
                                "value": "9"
                            },
                            {
                                "key": "Mei\u00dfeln mit Seitengriff",
                                "value": "10"
                            },
                            {
                                "key": "Mei\u00dfeln mit B\u00fcgelgriff",
                                "value": "11"
                            },
                            {
                                "key": "Bearbeiten von Holz (MDF)",
                                "value": "12"
                            },
                            {
                                "key": "Schleifen von Metall",
                                "value": "13"
                            },
                            {
                                "key": "Hobeln Weichholz mit max. Spantiefe",
                                "value": "14"
                            },
                            {
                                "key": "Oberfl\u00e4chenschleifen",
                                "value": "15"
                            },
                            {
                                "key": "Sandschleifen",
                                "value": "16"
                            },
                            {
                                "key": "Schneiden von Holz",
                                "value": "17"
                            },
                            {
                                "key": "Hammerbohren in Beton",
                                "value": "18"
                            }
                        ],
                        "width": 250,
                        "defaultValue": "",
                        "optionsProviderClass": "",
                        "optionsProviderData": "",
                        "queryColumnType": "varchar",
                        "columnType": "varchar",
                        "columnLength": 190,
                        "phpdocType": "string",
                        "name": "Application",
                        "title": "Anwendung",
                        "tooltip": "",
                        "mandatory": false,
                        "noteditable": false,
                        "index": false,
                        "locked": false,
                        "style": "",
                        "permissions": null,
                        "datatype": "data",
                        "relationType": false,
                        "invisible": false,
                        "visibleGridView": false,
                        "visibleSearch": false
                    },
                    {
                        "fieldtype": "quantityValue",
                        "width": null,
                        "unitWidth": null,
                        "defaultValue": null,
                        "defaultUnit": "30",
                        "validUnits": [
                            "30"
                        ],
                        "decimalPrecision": null,
                        "queryColumnType": {
                            "value": "double",
                            "unit": "bigint(20)"
                        },
                        "columnType": {
                            "value": "double",
                            "unit": "bigint(20)"
                        },
                        "phpdocType": "\\Pimcore\\Model\\DataObject\\Data\\QuantityValue",
                        "name": "Vibration",
                        "title": "Vibration",
                        "tooltip": "Vibration(m\/s\u00b2)",
                        "mandatory": false,
                        "noteditable": false,
                        "index": false,
                        "locked": false,
                        "style": "",
                        "permissions": null,
                        "datatype": "data",
                        "relationType": false,
                        "invisible": false,
                        "visibleGridView": false,
                        "visibleSearch": false
                    },
                    {
                        "fieldtype": "quantityValue",
                        "width": null,
                        "unitWidth": null,
                        "defaultValue": null,
                        "defaultUnit": "30",
                        "validUnits": [
                            "30"
                        ],
                        "decimalPrecision": null,
                        "queryColumnType": {
                            "value": "double",
                            "unit": "bigint(20)"
                        },
                        "columnType": {
                            "value": "double",
                            "unit": "bigint(20)"
                        },
                        "phpdocType": "\\Pimcore\\Model\\DataObject\\Data\\QuantityValue",
                        "name": "K_vibartions",
                        "title": "K Vibrationen",
                        "tooltip": "K (m\/s\u00b2)",
                        "mandatory": false,
                        "noteditable": false,
                        "index": false,
                        "locked": false,
                        "style": "",
                        "permissions": null,
                        "datatype": "data",
                        "relationType": false,
                        "invisible": false,
                        "visibleGridView": false,
                        "visibleSearch": false
                    },
                    {
                        "fieldtype": "quantityValue",
                        "width": null,
                        "unitWidth": null,
                        "defaultValue": null,
                        "defaultUnit": "31",
                        "validUnits": [
                            "31"
                        ],
                        "decimalPrecision": null,
                        "queryColumnType": {
                            "value": "double",
                            "unit": "bigint(20)"
                        },
                        "columnType": {
                            "value": "double",
                            "unit": "bigint(20)"
                        },
                        "phpdocType": "\\Pimcore\\Model\\DataObject\\Data\\QuantityValue",
                        "name": "Schalldruckpegel",
                        "title": "Schalldruckpegel",
                        "tooltip": "Schalldruckpegel LPA dB(A)",
                        "mandatory": false,
                        "noteditable": false,
                        "index": false,
                        "locked": false,
                        "style": "",
                        "permissions": null,
                        "datatype": "data",
                        "relationType": false,
                        "invisible": false,
                        "visibleGridView": false,
                        "visibleSearch": false
                    },
                    {
                        "fieldtype": "quantityValue",
                        "width": null,
                        "unitWidth": null,
                        "defaultValue": null,
                        "defaultUnit": "31",
                        "validUnits": [
                            "31"
                        ],
                        "decimalPrecision": null,
                        "queryColumnType": {
                            "value": "double",
                            "unit": "bigint(20)"
                        },
                        "columnType": {
                            "value": "double",
                            "unit": "bigint(20)"
                        },
                        "phpdocType": "\\Pimcore\\Model\\DataObject\\Data\\QuantityValue",
                        "name": "Schallleistungspegel",
                        "title": "Schallleistungspegel",
                        "tooltip": "Schallleistungspegel LWA dB(A)",
                        "mandatory": false,
                        "noteditable": false,
                        "index": false,
                        "locked": false,
                        "style": "",
                        "permissions": null,
                        "datatype": "data",
                        "relationType": false,
                        "invisible": false,
                        "visibleGridView": false,
                        "visibleSearch": false
                    },
                    {
                        "fieldtype": "quantityValue",
                        "width": null,
                        "unitWidth": null,
                        "defaultValue": null,
                        "defaultUnit": "31",
                        "validUnits": [
                            "31"
                        ],
                        "decimalPrecision": null,
                        "queryColumnType": {
                            "value": "double",
                            "unit": "bigint(20)"
                        },
                        "columnType": {
                            "value": "double",
                            "unit": "bigint(20)"
                        },
                        "phpdocType": "\\Pimcore\\Model\\DataObject\\Data\\QuantityValue",
                        "name": "K_noise",
                        "title": "K Schall",
                        "tooltip": "K dB(A)",
                        "mandatory": false,
                        "noteditable": false,
                        "index": false,
                        "locked": false,
                        "style": "",
                        "permissions": null,
                        "datatype": "data",
                        "relationType": false,
                        "invisible": false,
                        "visibleGridView": false,
                        "visibleSearch": false
                    }
                ],
                "locked": false
            }
        ],
        "locked": false
    }
}