{
    "parentClass": "\\Pimcore\\Bundle\\EcommerceFrameworkBundle\\Model\\AbstractFilterDefinitionType",
    "title": null,
    "group": null,
    "layoutDefinitions": {
        "fieldtype": "panel",
        "labelWidth": 100,
        "layout": null,
        "name": null,
        "type": null,
        "region": null,
        "title": null,
        "width": null,
        "height": null,
        "collapsible": false,
        "collapsed": false,
        "bodyStyle": null,
        "datatype": "layout",
        "permissions": null,
        "childs": [
            {
                "fieldtype": "panel",
                "labelWidth": 100,
                "layout": "",
                "name": "Layout",
                "type": "",
                "region": "",
                "title": "Filter MultiRelation",
                "width": null,
                "height": null,
                "collapsible": false,
                "collapsed": false,
                "bodyStyle": "",
                "datatype": "layout",
                "permissions": "",
                "childs": [
                    {
                        "fieldtype": "text",
                        "html": "<b>Filter MultiRelation<\/b><div>Multi selection filter for relation fields.<\/div><div>- Use And Condition: Uses AND condition instead of OR.&nbsp;<\/div>",
                        "renderingClass": null,
                        "renderingData": null,
                        "name": "Layout",
                        "type": null,
                        "region": null,
                        "title": "",
                        "width": null,
                        "height": null,
                        "collapsible": false,
                        "collapsed": false,
                        "bodyStyle": "padding: 10px; background-color: #d9edf7; border-color: #bce8f1 !important; color: #31708f;",
                        "datatype": "layout",
                        "permissions": null,
                        "childs": [],
                        "locked": false
                    },
                    {
                        "fieldtype": "input",
                        "width": 400,
                        "queryColumnType": "varchar",
                        "columnType": "varchar",
                        "columnLength": 255,
                        "phpdocType": "string",
                        "regex": "",
                        "unique": null,
                        "showCharCount": null,
                        "name": "label",
                        "title": "Label",
                        "tooltip": "",
                        "mandatory": false,
                        "noteditable": false,
                        "index": false,
                        "locked": false,
                        "style": "",
                        "permissions": "",
                        "datatype": "data",
                        "relationType": false,
                        "invisible": false,
                        "visibleGridView": false,
                        "visibleSearch": false
                    },
                    {
                        "fieldtype": "indexFieldSelection",
                        "queryColumnType": {
                            "tenant": "varchar(100)",
                            "field": "varchar(200)",
                            "preSelect": "text"
                        },
                        "columnType": {
                            "tenant": "varchar(100)",
                            "field": "varchar(200)",
                            "preSelect": "text"
                        },
                        "phpdocType": "\\Pimcore\\Bundle\\EcommerceFrameworkBundle\\CoreExtensions\\ObjectData\\IndexFieldSelection",
                        "width": 400,
                        "considerTenants": true,
                        "multiPreSelect": "remote_multi",
                        "filterGroups": [
                            "relation"
                        ],
                        "predefinedPreSelectOptions": [],
                        "name": "field",
                        "title": "Field",
                        "tooltip": "",
                        "mandatory": false,
                        "noteditable": false,
                        "index": false,
                        "locked": false,
                        "style": "",
                        "permissions": null,
                        "datatype": "data",
                        "relationType": false,
                        "invisible": false,
                        "visibleGridView": false,
                        "visibleSearch": false
                    },
                    {
                        "fieldtype": "checkbox",
                        "defaultValue": 0,
                        "queryColumnType": "tinyint(1)",
                        "columnType": "tinyint(1)",
                        "phpdocType": "boolean",
                        "name": "useAndCondition",
                        "title": "Use And Condition",
                        "tooltip": "",
                        "mandatory": false,
                        "noteditable": false,
                        "index": false,
                        "locked": false,
                        "style": "",
                        "permissions": null,
                        "datatype": "data",
                        "relationType": false,
                        "invisible": false,
                        "visibleGridView": false,
                        "visibleSearch": false
                    },
                    {
                        "fieldtype": "input",
                        "width": 300,
                        "queryColumnType": "varchar",
                        "columnType": "varchar",
                        "columnLength": 255,
                        "phpdocType": "string",
                        "regex": "",
                        "unique": null,
                        "showCharCount": null,
                        "name": "scriptPath",
                        "title": "Script Path",
                        "tooltip": "",
                        "mandatory": false,
                        "noteditable": false,
                        "index": false,
                        "locked": false,
                        "style": "",
                        "permissions": "",
                        "datatype": "data",
                        "relationType": false,
                        "invisible": false,
                        "visibleGridView": false,
                        "visibleSearch": false
                    },
                    {
                        "fieldtype": "manyToManyObjectRelation",
                        "width": "",
                        "height": "",
                        "maxItems": "",
                        "queryColumnType": "text",
                        "phpdocType": "array",
                        "relationType": true,
                        "visibleFields": null,
                        "lazyLoading": true,
                        "classes": [],
                        "pathFormatterClass": null,
                        "name": "availableRelations",
                        "title": "Available Relations",
                        "tooltip": "",
                        "mandatory": false,
                        "noteditable": false,
                        "index": false,
                        "locked": false,
                        "style": "",
                        "permissions": null,
                        "datatype": "data",
                        "invisible": false,
                        "visibleGridView": false,
                        "visibleSearch": false
                    }
                ],
                "locked": false
            }
        ],
        "locked": false
    }
}