{
    "parentClass": "\\Pimcore\\Bundle\\EcommerceFrameworkBundle\\Model\\AbstractVoucherTokenType",
    "title": null,
    "group": null,
    "layoutDefinitions": {
        "fieldtype": "panel",
        "labelWidth": 100,
        "layout": null,
        "name": null,
        "type": null,
        "region": null,
        "title": null,
        "width": null,
        "height": null,
        "collapsible": false,
        "collapsed": false,
        "bodyStyle": null,
        "datatype": "layout",
        "permissions": null,
        "childs": [
            {
                "fieldtype": "panel",
                "labelWidth": 150,
                "layout": null,
                "name": "Layout",
                "type": null,
                "region": null,
                "title": "Single",
                "width": null,
                "height": null,
                "collapsible": false,
                "collapsed": false,
                "bodyStyle": "",
                "datatype": "layout",
                "permissions": null,
                "childs": [
                    {
                        "fieldtype": "text",
                        "html": "Specify one single token and allow usage of this token multiple times.&nbsp;",
                        "renderingClass": null,
                        "renderingData": null,
                        "name": "Layout",
                        "type": null,
                        "region": null,
                        "title": "",
                        "width": null,
                        "height": null,
                        "collapsible": false,
                        "collapsed": false,
                        "bodyStyle": "padding: 10px; background-color: #d9edf7; border-color: #bce8f1 !important; color: #31708f;",
                        "datatype": "layout",
                        "permissions": null,
                        "childs": [],
                        "locked": false
                    },
                    {
                        "fieldtype": "input",
                        "width": 500,
                        "queryColumnType": "varchar",
                        "columnType": "varchar",
                        "columnLength": 255,
                        "phpdocType": "string",
                        "regex": "^((?!\\s).)*$",
                        "unique": null,
                        "showCharCount": null,
                        "name": "token",
                        "title": "Token",
                        "tooltip": "",
                        "mandatory": false,
                        "noteditable": false,
                        "index": false,
                        "locked": false,
                        "style": "",
                        "permissions": null,
                        "datatype": "data",
                        "relationType": false,
                        "invisible": false,
                        "visibleGridView": false,
                        "visibleSearch": false
                    },
                    {
                        "fieldtype": "numeric",
                        "width": 500,
                        "defaultValue": 1,
                        "queryColumnType": "double",
                        "columnType": "double",
                        "phpdocType": "float",
                        "integer": false,
                        "unsigned": true,
                        "minValue": 1,
                        "maxValue": null,
                        "unique": null,
                        "decimalSize": null,
                        "decimalPrecision": 0,
                        "name": "usages",
                        "title": "Usage count",
                        "tooltip": "",
                        "mandatory": false,
                        "noteditable": false,
                        "index": false,
                        "locked": false,
                        "style": "",
                        "permissions": null,
                        "datatype": "data",
                        "relationType": false,
                        "invisible": false,
                        "visibleGridView": false,
                        "visibleSearch": false
                    },
                    {
                        "fieldtype": "checkbox",
                        "defaultValue": 0,
                        "queryColumnType": "tinyint(1)",
                        "columnType": "tinyint(1)",
                        "phpdocType": "boolean",
                        "name": "onlyTokenPerCart",
                        "title": "Only token of a cart",
                        "tooltip": "",
                        "mandatory": false,
                        "noteditable": false,
                        "index": false,
                        "locked": false,
                        "style": "",
                        "permissions": null,
                        "datatype": "data",
                        "relationType": false,
                        "invisible": false,
                        "visibleGridView": false,
                        "visibleSearch": false
                    }
                ],
                "locked": false
            }
        ],
        "locked": false
    }
}