{
    "id": "12",
    "name": "ProductManager",
    "description": "",
    "classId": "400",
    "layoutDefinitions": {
        "fieldtype": "panel",
        "labelWidth": 100,
        "layout": null,
        "name": "pimcore_root",
        "type": null,
        "region": null,
        "title": null,
        "width": null,
        "height": null,
        "collapsible": false,
        "collapsed": false,
        "bodyStyle": null,
        "datatype": "layout",
        "permissions": null,
        "childs": [
            {
                "fieldtype": "tabpanel",
                "name": "Layout",
                "type": null,
                "region": null,
                "title": "",
                "width": null,
                "height": null,
                "collapsible": false,
                "collapsed": false,
                "bodyStyle": "",
                "datatype": "layout",
                "permissions": null,
                "childs": [
                    {
                        "fieldtype": "panel",
                        "labelWidth": 300,
                        "layout": null,
                        "name": "Common",
                        "type": null,
                        "region": null,
                        "title": "Common",
                        "width": null,
                        "height": null,
                        "collapsible": false,
                        "collapsed": false,
                        "bodyStyle": "",
                        "datatype": "layout",
                        "permissions": null,
                        "childs": [
                            {
                                "fieldtype": "localizedfields",
                                "phpdocType": "\\Pimcore\\Model\\DataObject\\Localizedfield",
                                "childs": [
                                    {
                                        "fieldtype": "input",
                                        "width": 400,
                                        "queryColumnType": "varchar",
                                        "columnType": "varchar",
                                        "columnLength": 300,
                                        "phpdocType": "string",
                                        "regex": "",
                                        "unique": false,
                                        "showCharCount": false,
                                        "name": "CATALOG_CATALOG_NAME",
                                        "title": "CATALOG CATALOG NAME",
                                        "tooltip": "",
                                        "mandatory": false,
                                        "noteditable": false,
                                        "index": false,
                                        "locked": false,
                                        "style": "",
                                        "permissions": null,
                                        "datatype": "data",
                                        "relationType": false,
                                        "invisible": false,
                                        "visibleGridView": false,
                                        "visibleSearch": false
                                    },
                                    {
                                        "fieldtype": "input",
                                        "width": 400,
                                        "queryColumnType": "varchar",
                                        "columnType": "varchar",
                                        "columnLength": 300,
                                        "phpdocType": "string",
                                        "regex": "",
                                        "unique": false,
                                        "showCharCount": false,
                                        "name": "CATALOG_LANGUAGE",
                                        "title": "CATALOG LANGUAGE",
                                        "tooltip": "",
                                        "mandatory": false,
                                        "noteditable": false,
                                        "index": false,
                                        "locked": false,
                                        "style": "",
                                        "permissions": null,
                                        "datatype": "data",
                                        "relationType": false,
                                        "invisible": false,
                                        "visibleGridView": false,
                                        "visibleSearch": false
                                    },
                                    {
                                        "fieldtype": "select",
                                        "options": [
                                            {
                                                "key": "EUR",
                                                "value": " EUR"
                                            },
                                            {
                                                "key": "CHF",
                                                "value": " CHF"
                                            }
                                        ],
                                        "width": 400,
                                        "defaultValue": "",
                                        "optionsProviderClass": "",
                                        "optionsProviderData": "",
                                        "queryColumnType": "varchar",
                                        "columnType": "varchar",
                                        "columnLength": 190,
                                        "phpdocType": "string",
                                        "name": "CATALOG_CURRENCY",
                                        "title": "CATALOG_CURRENCY",
                                        "tooltip": "",
                                        "mandatory": false,
                                        "noteditable": false,
                                        "index": false,
                                        "locked": false,
                                        "style": "",
                                        "permissions": null,
                                        "datatype": "data",
                                        "relationType": false,
                                        "invisible": false,
                                        "visibleGridView": false,
                                        "visibleSearch": false
                                    },
                                    {
                                        "fieldtype": "select",
                                        "options": [
                                            {
                                                "key": "DE",
                                                "value": " DE"
                                            },
                                            {
                                                "key": "AT",
                                                "value": " AT"
                                            },
                                            {
                                                "key": "CH",
                                                "value": " CH"
                                            }
                                        ],
                                        "width": 400,
                                        "defaultValue": "",
                                        "optionsProviderClass": "",
                                        "optionsProviderData": "",
                                        "queryColumnType": "varchar",
                                        "columnType": "varchar",
                                        "columnLength": 190,
                                        "phpdocType": "string",
                                        "name": "CATALOG_TERRITORY",
                                        "title": "CATALOG_TERRITORY",
                                        "tooltip": "",
                                        "mandatory": false,
                                        "noteditable": false,
                                        "index": false,
                                        "locked": false,
                                        "style": "",
                                        "permissions": null,
                                        "datatype": "data",
                                        "relationType": false,
                                        "invisible": false,
                                        "visibleGridView": false,
                                        "visibleSearch": false
                                    },
                                    {
                                        "fieldtype": "numeric",
                                        "width": 200,
                                        "defaultValue": null,
                                        "queryColumnType": "double",
                                        "columnType": "double",
                                        "phpdocType": "float",
                                        "integer": false,
                                        "unsigned": false,
                                        "minValue": null,
                                        "maxValue": null,
                                        "unique": false,
                                        "decimalSize": null,
                                        "decimalPrecision": null,
                                        "name": "Tax",
                                        "title": "Umsatzsteuer \/ MwSt.",
                                        "tooltip": "Neues Attribut\n\nBMECat Tag: TAX\n\n",
                                        "mandatory": false,
                                        "noteditable": false,
                                        "index": false,
                                        "locked": false,
                                        "style": "",
                                        "permissions": null,
                                        "datatype": "data",
                                        "relationType": false,
                                        "invisible": false,
                                        "visibleGridView": false,
                                        "visibleSearch": false
                                    }
                                ],
                                "name": "localizedfields",
                                "region": null,
                                "layout": null,
                                "title": "",
                                "width": "",
                                "height": "",
                                "maxTabs": null,
                                "labelWidth": 200,
                                "hideLabelsWhenTabsReached": null,
                                "fieldDefinitionsCache": null,
                                "tooltip": "",
                                "mandatory": false,
                                "noteditable": false,
                                "index": null,
                                "locked": false,
                                "style": "",
                                "permissions": null,
                                "datatype": "data",
                                "relationType": false,
                                "invisible": false,
                                "visibleGridView": true,
                                "visibleSearch": true
                            },
                            {
                                "fieldtype": "input",
                                "width": 400,
                                "queryColumnType": "varchar",
                                "columnType": "varchar",
                                "columnLength": 300,
                                "phpdocType": "string",
                                "regex": "",
                                "unique": false,
                                "showCharCount": false,
                                "name": "CATALOG_CATALOG_ID",
                                "title": "CATALOG CATALOG ID",
                                "tooltip": "",
                                "mandatory": false,
                                "noteditable": false,
                                "index": false,
                                "locked": false,
                                "style": "",
                                "permissions": null,
                                "datatype": "data",
                                "relationType": false,
                                "invisible": false,
                                "visibleGridView": false,
                                "visibleSearch": false
                            },
                            {
                                "fieldtype": "input",
                                "width": 400,
                                "queryColumnType": "varchar",
                                "columnType": "varchar",
                                "columnLength": 300,
                                "phpdocType": "string",
                                "regex": "",
                                "unique": false,
                                "showCharCount": false,
                                "name": "CATALOG_CATALOG_VERSION",
                                "title": "CATALOG CATALOG VERSION",
                                "tooltip": "",
                                "mandatory": false,
                                "noteditable": false,
                                "index": false,
                                "locked": false,
                                "style": "",
                                "permissions": null,
                                "datatype": "data",
                                "relationType": false,
                                "invisible": false,
                                "visibleGridView": false,
                                "visibleSearch": false
                            },
                            {
                                "fieldtype": "date",
                                "queryColumnType": "bigint(20)",
                                "columnType": "bigint(20)",
                                "phpdocType": "\\Carbon\\Carbon",
                                "defaultValue": null,
                                "useCurrentDate": false,
                                "name": "CATALOG_GENERATION_DATETIME",
                                "title": "CATALOG_GENERATION_DATETIME",
                                "tooltip": "Achtung umbenannt:\nCATALOG_LANGUAGE_DATETIME\n\n<DATETIME><DATE><\/DATE><\/DATETIME>\n",
                                "mandatory": false,
                                "noteditable": false,
                                "index": false,
                                "locked": false,
                                "style": "",
                                "permissions": null,
                                "datatype": "data",
                                "relationType": false,
                                "invisible": false,
                                "visibleGridView": false,
                                "visibleSearch": false
                            },
                            {
                                "fieldtype": "checkbox",
                                "defaultValue": 0,
                                "queryColumnType": "tinyint(1)",
                                "columnType": "tinyint(1)",
                                "phpdocType": "boolean",
                                "name": "CATALOG_PRICE_FLAG_INCL_FREIGHT",
                                "title": "CATALOG PRICE INCL FREIGHT",
                                "tooltip": "Values: true \/ false",
                                "mandatory": false,
                                "noteditable": false,
                                "index": false,
                                "locked": false,
                                "style": "",
                                "permissions": null,
                                "datatype": "data",
                                "relationType": false,
                                "invisible": false,
                                "visibleGridView": false,
                                "visibleSearch": false
                            },
                            {
                                "fieldtype": "checkbox",
                                "defaultValue": 0,
                                "queryColumnType": "tinyint(1)",
                                "columnType": "tinyint(1)",
                                "phpdocType": "boolean",
                                "name": "CATALOG_PRICE_FLAG_INCL_PACKING",
                                "title": "CATALOG PRICE INCL PACKING",
                                "tooltip": "Values: true \/ false",
                                "mandatory": false,
                                "noteditable": false,
                                "index": false,
                                "locked": false,
                                "style": "",
                                "permissions": null,
                                "datatype": "data",
                                "relationType": false,
                                "invisible": false,
                                "visibleGridView": false,
                                "visibleSearch": false
                            },
                            {
                                "fieldtype": "checkbox",
                                "defaultValue": 0,
                                "queryColumnType": "tinyint(1)",
                                "columnType": "tinyint(1)",
                                "phpdocType": "boolean",
                                "name": "CATALOG_PRICE_FLAG_INCL_ASSURANCE",
                                "title": "CATALOG PRICE INCL ASSURANCE",
                                "tooltip": "Values: true \/ false",
                                "mandatory": false,
                                "noteditable": false,
                                "index": false,
                                "locked": false,
                                "style": "",
                                "permissions": null,
                                "datatype": "data",
                                "relationType": false,
                                "invisible": false,
                                "visibleGridView": false,
                                "visibleSearch": false
                            },
                            {
                                "fieldtype": "checkbox",
                                "defaultValue": 0,
                                "queryColumnType": "tinyint(1)",
                                "columnType": "tinyint(1)",
                                "phpdocType": "boolean",
                                "name": "CATALOG_PRICE_FLAG_INCL_DUTY",
                                "title": "CATALOG PRICE FLAG INCL DUTY",
                                "tooltip": "Values: true \/ false",
                                "mandatory": false,
                                "noteditable": false,
                                "index": false,
                                "locked": false,
                                "style": "",
                                "permissions": null,
                                "datatype": "data",
                                "relationType": false,
                                "invisible": false,
                                "visibleGridView": false,
                                "visibleSearch": false
                            }
                        ],
                        "locked": false
                    },
                    {
                        "fieldtype": "panel",
                        "labelWidth": 250,
                        "layout": null,
                        "name": "Buyer",
                        "type": null,
                        "region": null,
                        "title": "Buyer",
                        "width": null,
                        "height": null,
                        "collapsible": false,
                        "collapsed": false,
                        "bodyStyle": "",
                        "datatype": "layout",
                        "permissions": null,
                        "childs": [
                            {
                                "fieldtype": "input",
                                "width": null,
                                "queryColumnType": "varchar",
                                "columnType": "varchar",
                                "columnLength": 190,
                                "phpdocType": "string",
                                "regex": "",
                                "unique": false,
                                "showCharCount": false,
                                "name": "BUYER_BUYER_ID_SUPPLIER_SPECIFIC",
                                "title": "BUYER ID (SUPPLIER SPECIFIC)",
                                "tooltip": "",
                                "mandatory": false,
                                "noteditable": false,
                                "index": false,
                                "locked": false,
                                "style": "",
                                "permissions": null,
                                "datatype": "data",
                                "relationType": false,
                                "invisible": false,
                                "visibleGridView": false,
                                "visibleSearch": false
                            },
                            {
                                "fieldtype": "input",
                                "width": null,
                                "queryColumnType": "varchar",
                                "columnType": "varchar",
                                "columnLength": 190,
                                "phpdocType": "string",
                                "regex": "",
                                "unique": false,
                                "showCharCount": false,
                                "name": "BUYER_BUYER_BUYER_NAME",
                                "title": "BUYER NAME",
                                "tooltip": "",
                                "mandatory": false,
                                "noteditable": false,
                                "index": false,
                                "locked": false,
                                "style": "",
                                "permissions": null,
                                "datatype": "data",
                                "relationType": false,
                                "invisible": false,
                                "visibleGridView": false,
                                "visibleSearch": false
                            },
                            {
                                "fieldtype": "input",
                                "width": null,
                                "queryColumnType": "varchar",
                                "columnType": "varchar",
                                "columnLength": 190,
                                "phpdocType": "string",
                                "regex": "",
                                "unique": false,
                                "showCharCount": false,
                                "name": "BUYER_ADRESS_STREET",
                                "title": "BUYER ADRESS STREET",
                                "tooltip": "",
                                "mandatory": false,
                                "noteditable": false,
                                "index": false,
                                "locked": false,
                                "style": "",
                                "permissions": null,
                                "datatype": "data",
                                "relationType": false,
                                "invisible": false,
                                "visibleGridView": false,
                                "visibleSearch": false
                            },
                            {
                                "fieldtype": "input",
                                "width": null,
                                "queryColumnType": "varchar",
                                "columnType": "varchar",
                                "columnLength": 190,
                                "phpdocType": "string",
                                "regex": "",
                                "unique": false,
                                "showCharCount": false,
                                "name": "BUYER_ADRESS_ZIP",
                                "title": "BUYER ADRESS ZIP",
                                "tooltip": "",
                                "mandatory": false,
                                "noteditable": false,
                                "index": false,
                                "locked": false,
                                "style": "",
                                "permissions": null,
                                "datatype": "data",
                                "relationType": false,
                                "invisible": false,
                                "visibleGridView": false,
                                "visibleSearch": false
                            },
                            {
                                "fieldtype": "input",
                                "width": null,
                                "queryColumnType": "varchar",
                                "columnType": "varchar",
                                "columnLength": 190,
                                "phpdocType": "string",
                                "regex": "",
                                "unique": false,
                                "showCharCount": false,
                                "name": "BUYER_ADRESS_CITY",
                                "title": "BUYER ADRESS CITY",
                                "tooltip": "",
                                "mandatory": false,
                                "noteditable": false,
                                "index": false,
                                "locked": false,
                                "style": "",
                                "permissions": null,
                                "datatype": "data",
                                "relationType": false,
                                "invisible": false,
                                "visibleGridView": false,
                                "visibleSearch": false
                            },
                            {
                                "fieldtype": "input",
                                "width": null,
                                "queryColumnType": "varchar",
                                "columnType": "varchar",
                                "columnLength": 190,
                                "phpdocType": "string",
                                "regex": "",
                                "unique": false,
                                "showCharCount": false,
                                "name": "BUYER_ADRESS_COUNTRY",
                                "title": "BUYER ADRESS COUNTRY",
                                "tooltip": "",
                                "mandatory": false,
                                "noteditable": false,
                                "index": false,
                                "locked": false,
                                "style": "",
                                "permissions": null,
                                "datatype": "data",
                                "relationType": false,
                                "invisible": false,
                                "visibleGridView": false,
                                "visibleSearch": false
                            }
                        ],
                        "locked": false
                    },
                    {
                        "fieldtype": "panel",
                        "labelWidth": 300,
                        "layout": "",
                        "name": "Supplier",
                        "type": null,
                        "region": null,
                        "title": "Supplier",
                        "width": null,
                        "height": null,
                        "collapsible": false,
                        "collapsed": false,
                        "bodyStyle": "",
                        "datatype": "layout",
                        "permissions": null,
                        "childs": [
                            {
                                "fieldtype": "input",
                                "width": null,
                                "queryColumnType": "varchar",
                                "columnType": "varchar",
                                "columnLength": 190,
                                "phpdocType": "string",
                                "regex": "",
                                "unique": false,
                                "showCharCount": false,
                                "name": "SUPPLIER_SUPPLIER_ID_SUPPLIER_SPECIFIC",
                                "title": "SUPPLIER ID (SUPPLIER SPECIFIC)",
                                "tooltip": "",
                                "mandatory": false,
                                "noteditable": false,
                                "index": false,
                                "locked": false,
                                "style": "",
                                "permissions": null,
                                "datatype": "data",
                                "relationType": false,
                                "invisible": false,
                                "visibleGridView": false,
                                "visibleSearch": false
                            },
                            {
                                "fieldtype": "input",
                                "width": null,
                                "queryColumnType": "varchar",
                                "columnType": "varchar",
                                "columnLength": 190,
                                "phpdocType": "string",
                                "regex": "",
                                "unique": false,
                                "showCharCount": false,
                                "name": "SUPPLIER_SUPPLIER_NAME",
                                "title": "SUPPLIER NAME",
                                "tooltip": "",
                                "mandatory": false,
                                "noteditable": false,
                                "index": false,
                                "locked": false,
                                "style": "",
                                "permissions": null,
                                "datatype": "data",
                                "relationType": false,
                                "invisible": false,
                                "visibleGridView": false,
                                "visibleSearch": false
                            },
                            {
                                "fieldtype": "input",
                                "width": null,
                                "queryColumnType": "varchar",
                                "columnType": "varchar",
                                "columnLength": 190,
                                "phpdocType": "string",
                                "regex": "",
                                "unique": false,
                                "showCharCount": false,
                                "name": "SUPPLIER_ADDRESS_SUPPLIER_NAME",
                                "title": "SUPPLIER ADDRESS - SUPPLIER NAME",
                                "tooltip": "",
                                "mandatory": false,
                                "noteditable": false,
                                "index": false,
                                "locked": false,
                                "style": "",
                                "permissions": null,
                                "datatype": "data",
                                "relationType": false,
                                "invisible": false,
                                "visibleGridView": false,
                                "visibleSearch": false
                            },
                            {
                                "fieldtype": "input",
                                "width": null,
                                "queryColumnType": "varchar",
                                "columnType": "varchar",
                                "columnLength": 190,
                                "phpdocType": "string",
                                "regex": "",
                                "unique": false,
                                "showCharCount": false,
                                "name": "SUPPLIER_ADDRESS_SUPPLIER_STREET",
                                "title": "SUPPLIER ADDRESS - SUPPLIER STREET",
                                "tooltip": "",
                                "mandatory": false,
                                "noteditable": false,
                                "index": false,
                                "locked": false,
                                "style": "",
                                "permissions": null,
                                "datatype": "data",
                                "relationType": false,
                                "invisible": false,
                                "visibleGridView": false,
                                "visibleSearch": false
                            },
                            {
                                "fieldtype": "input",
                                "width": null,
                                "queryColumnType": "varchar",
                                "columnType": "varchar",
                                "columnLength": 190,
                                "phpdocType": "string",
                                "regex": "",
                                "unique": false,
                                "showCharCount": false,
                                "name": "SUPPLIER_ADDRESS_SUPPLIER_ZIP",
                                "title": "SUPPLIER ADDRESS -SUPPLIER ZIP",
                                "tooltip": "",
                                "mandatory": false,
                                "noteditable": false,
                                "index": false,
                                "locked": false,
                                "style": "",
                                "permissions": null,
                                "datatype": "data",
                                "relationType": false,
                                "invisible": false,
                                "visibleGridView": false,
                                "visibleSearch": false
                            },
                            {
                                "fieldtype": "input",
                                "width": null,
                                "queryColumnType": "varchar",
                                "columnType": "varchar",
                                "columnLength": 190,
                                "phpdocType": "string",
                                "regex": "",
                                "unique": false,
                                "showCharCount": false,
                                "name": "SUPPLIER_ADDRESS_SUPPLIER_CITY",
                                "title": "SUPPLIER ADDRESS - SUPPLIER CITY",
                                "tooltip": "",
                                "mandatory": false,
                                "noteditable": false,
                                "index": false,
                                "locked": false,
                                "style": "",
                                "permissions": null,
                                "datatype": "data",
                                "relationType": false,
                                "invisible": false,
                                "visibleGridView": false,
                                "visibleSearch": false
                            },
                            {
                                "fieldtype": "input",
                                "width": null,
                                "queryColumnType": "varchar",
                                "columnType": "varchar",
                                "columnLength": 190,
                                "phpdocType": "string",
                                "regex": "",
                                "unique": false,
                                "showCharCount": false,
                                "name": "SUPPLIER_ADDRESS_SUPPLIER_STATE",
                                "title": "SUPPLIER ADDRESS - SUPPLIER STATE",
                                "tooltip": "",
                                "mandatory": false,
                                "noteditable": false,
                                "index": false,
                                "locked": false,
                                "style": "",
                                "permissions": null,
                                "datatype": "data",
                                "relationType": false,
                                "invisible": false,
                                "visibleGridView": false,
                                "visibleSearch": false
                            },
                            {
                                "fieldtype": "input",
                                "width": null,
                                "queryColumnType": "varchar",
                                "columnType": "varchar",
                                "columnLength": 190,
                                "phpdocType": "string",
                                "regex": "",
                                "unique": false,
                                "showCharCount": false,
                                "name": "SUPPLIER_ADDRESS_SUPPLIER_COUNTRY",
                                "title": "SUPPLIER ADDRESS - SUPPLIER COUNTRY",
                                "tooltip": "",
                                "mandatory": false,
                                "noteditable": false,
                                "index": false,
                                "locked": false,
                                "style": "",
                                "permissions": null,
                                "datatype": "data",
                                "relationType": false,
                                "invisible": false,
                                "visibleGridView": false,
                                "visibleSearch": false
                            },
                            {
                                "fieldtype": "input",
                                "width": null,
                                "queryColumnType": "varchar",
                                "columnType": "varchar",
                                "columnLength": 190,
                                "phpdocType": "string",
                                "regex": "",
                                "unique": false,
                                "showCharCount": false,
                                "name": "SUPPLIER_ADDRESS_SUPPLIER_PHONE",
                                "title": "SUPPLIER ADDRESS - SUPPLIER PHONE",
                                "tooltip": "",
                                "mandatory": false,
                                "noteditable": false,
                                "index": false,
                                "locked": false,
                                "style": "",
                                "permissions": null,
                                "datatype": "data",
                                "relationType": false,
                                "invisible": false,
                                "visibleGridView": false,
                                "visibleSearch": false
                            },
                            {
                                "fieldtype": "input",
                                "width": null,
                                "queryColumnType": "varchar",
                                "columnType": "varchar",
                                "columnLength": 190,
                                "phpdocType": "string",
                                "regex": "",
                                "unique": false,
                                "showCharCount": false,
                                "name": "SUPPLIER_ADDRESS_SUPPLIER_FAX",
                                "title": "SUPPLIER ADDRESS - SUPPLIER FAX",
                                "tooltip": "",
                                "mandatory": false,
                                "noteditable": false,
                                "index": false,
                                "locked": false,
                                "style": "",
                                "permissions": null,
                                "datatype": "data",
                                "relationType": false,
                                "invisible": false,
                                "visibleGridView": false,
                                "visibleSearch": false
                            },
                            {
                                "fieldtype": "input",
                                "width": null,
                                "queryColumnType": "varchar",
                                "columnType": "varchar",
                                "columnLength": 190,
                                "phpdocType": "string",
                                "regex": "",
                                "unique": false,
                                "showCharCount": false,
                                "name": "SUPPLIER_ADDRESS_SUPPLIER_EMAIL",
                                "title": "SUPPLIER ADDRESS - SUPPLIER EMAIL",
                                "tooltip": "",
                                "mandatory": false,
                                "noteditable": false,
                                "index": false,
                                "locked": false,
                                "style": "",
                                "permissions": null,
                                "datatype": "data",
                                "relationType": false,
                                "invisible": false,
                                "visibleGridView": false,
                                "visibleSearch": false
                            },
                            {
                                "fieldtype": "input",
                                "width": null,
                                "queryColumnType": "varchar",
                                "columnType": "varchar",
                                "columnLength": 190,
                                "phpdocType": "string",
                                "regex": "",
                                "unique": false,
                                "showCharCount": false,
                                "name": "SUPPLIER_ADDRESS_SUPPLIER_URL",
                                "title": "SUPPLIER ADDRESS - SUPPLIER URL",
                                "tooltip": "",
                                "mandatory": false,
                                "noteditable": false,
                                "index": false,
                                "locked": false,
                                "style": "",
                                "permissions": null,
                                "datatype": "data",
                                "relationType": false,
                                "invisible": false,
                                "visibleGridView": false,
                                "visibleSearch": false
                            },
                            {
                                "fieldtype": "input",
                                "width": 300,
                                "queryColumnType": "varchar",
                                "columnType": "varchar",
                                "columnLength": 300,
                                "phpdocType": "string",
                                "regex": "",
                                "unique": false,
                                "showCharCount": false,
                                "name": "SUPPLIER_ADDRESS_SUPPLIER_ADDRESS_REMARKS",
                                "title": "SUPPLIER ADDRESS - REMARKS",
                                "tooltip": "",
                                "mandatory": false,
                                "noteditable": false,
                                "index": false,
                                "locked": false,
                                "style": "",
                                "permissions": null,
                                "datatype": "data",
                                "relationType": false,
                                "invisible": false,
                                "visibleGridView": false,
                                "visibleSearch": false
                            }
                        ],
                        "locked": false
                    },
                    {
                        "fieldtype": "panel",
                        "labelWidth": 300,
                        "layout": null,
                        "name": "Folder",
                        "type": null,
                        "region": null,
                        "title": "Folder",
                        "width": null,
                        "height": null,
                        "collapsible": false,
                        "collapsed": false,
                        "bodyStyle": "",
                        "datatype": "layout",
                        "permissions": null,
                        "childs": [
                            {
                                "fieldtype": "localizedfields",
                                "phpdocType": "\\Pimcore\\Model\\DataObject\\Localizedfield",
                                "childs": [
                                    {
                                        "fieldtype": "input",
                                        "width": 500,
                                        "queryColumnType": "varchar",
                                        "columnType": "varchar",
                                        "columnLength": 190,
                                        "phpdocType": "string",
                                        "regex": "",
                                        "unique": false,
                                        "showCharCount": false,
                                        "name": "GROUP_NAME",
                                        "title": "GROUP NAME",
                                        "tooltip": "",
                                        "mandatory": false,
                                        "noteditable": false,
                                        "index": false,
                                        "locked": false,
                                        "style": "",
                                        "permissions": null,
                                        "datatype": "data",
                                        "relationType": false,
                                        "invisible": false,
                                        "visibleGridView": false,
                                        "visibleSearch": false
                                    }
                                ],
                                "name": "localizedfields",
                                "region": null,
                                "layout": null,
                                "title": "",
                                "width": "",
                                "height": "",
                                "maxTabs": null,
                                "labelWidth": null,
                                "hideLabelsWhenTabsReached": null,
                                "fieldDefinitionsCache": null,
                                "tooltip": "",
                                "mandatory": false,
                                "noteditable": false,
                                "index": null,
                                "locked": false,
                                "style": "",
                                "permissions": null,
                                "datatype": "data",
                                "relationType": false,
                                "invisible": false,
                                "visibleGridView": true,
                                "visibleSearch": true
                            },
                            {
                                "fieldtype": "input",
                                "width": 500,
                                "queryColumnType": "varchar",
                                "columnType": "varchar",
                                "columnLength": 190,
                                "phpdocType": "string",
                                "regex": "",
                                "unique": false,
                                "showCharCount": false,
                                "name": "GROUP_ID",
                                "title": "GROUP ID",
                                "tooltip": "",
                                "mandatory": false,
                                "noteditable": false,
                                "index": false,
                                "locked": false,
                                "style": "",
                                "permissions": null,
                                "datatype": "data",
                                "relationType": false,
                                "invisible": false,
                                "visibleGridView": false,
                                "visibleSearch": false
                            },
                            {
                                "fieldtype": "input",
                                "width": 500,
                                "queryColumnType": "varchar",
                                "columnType": "varchar",
                                "columnLength": 190,
                                "phpdocType": "string",
                                "regex": "",
                                "unique": false,
                                "showCharCount": false,
                                "name": "PARENT_ID",
                                "title": " ID PARENT GROUP",
                                "tooltip": "",
                                "mandatory": false,
                                "noteditable": false,
                                "index": false,
                                "locked": false,
                                "style": "",
                                "permissions": null,
                                "datatype": "data",
                                "relationType": false,
                                "invisible": false,
                                "visibleGridView": false,
                                "visibleSearch": false
                            },
                            {
                                "fieldtype": "numeric",
                                "width": 500,
                                "defaultValue": null,
                                "queryColumnType": "double",
                                "columnType": "double",
                                "phpdocType": "float",
                                "integer": true,
                                "unsigned": true,
                                "minValue": null,
                                "maxValue": null,
                                "unique": false,
                                "decimalSize": null,
                                "decimalPrecision": null,
                                "name": "GROUP_ORDER",
                                "title": "GROUP ORDER",
                                "tooltip": "",
                                "mandatory": false,
                                "noteditable": false,
                                "index": false,
                                "locked": false,
                                "style": "",
                                "permissions": null,
                                "datatype": "data",
                                "relationType": false,
                                "invisible": false,
                                "visibleGridView": false,
                                "visibleSearch": false
                            }
                        ],
                        "locked": false
                    },
                    {
                        "fieldtype": "panel",
                        "labelWidth": 250,
                        "layout": null,
                        "name": "Meta",
                        "type": null,
                        "region": null,
                        "title": "Meta",
                        "width": null,
                        "height": null,
                        "collapsible": false,
                        "collapsed": false,
                        "bodyStyle": "",
                        "datatype": "layout",
                        "permissions": null,
                        "childs": [
                            {
                                "fieldtype": "input",
                                "width": null,
                                "queryColumnType": "varchar",
                                "columnType": "varchar",
                                "columnLength": 190,
                                "phpdocType": "string",
                                "regex": "",
                                "unique": false,
                                "showCharCount": null,
                                "name": "USER_DEFINED_EXTENSIONS",
                                "title": "USER_DEFINED_EXTENSIONS",
                                "tooltip": "",
                                "mandatory": false,
                                "noteditable": false,
                                "index": false,
                                "locked": false,
                                "style": "",
                                "permissions": null,
                                "datatype": "data",
                                "relationType": false,
                                "invisible": false,
                                "visibleGridView": false,
                                "visibleSearch": false
                            },
                            {
                                "fieldtype": "input",
                                "width": null,
                                "queryColumnType": "varchar",
                                "columnType": "varchar",
                                "columnLength": 190,
                                "phpdocType": "string",
                                "regex": "",
                                "unique": false,
                                "showCharCount": null,
                                "name": "BMECAT_VERSION",
                                "title": "BMECAT_VERSION",
                                "tooltip": "",
                                "mandatory": false,
                                "noteditable": false,
                                "index": false,
                                "locked": false,
                                "style": "",
                                "permissions": null,
                                "datatype": "data",
                                "relationType": false,
                                "invisible": false,
                                "visibleGridView": false,
                                "visibleSearch": false
                            },
                            {
                                "fieldtype": "checkbox",
                                "defaultValue": 0,
                                "queryColumnType": "tinyint(1)",
                                "columnType": "tinyint(1)",
                                "phpdocType": "boolean",
                                "name": "EXCLUDE_FROM_CATEGORY_TREE",
                                "title": "EXCLUDE_FROM_CATEGORY_TREE",
                                "tooltip": "",
                                "mandatory": false,
                                "noteditable": false,
                                "index": false,
                                "locked": false,
                                "style": "",
                                "permissions": null,
                                "datatype": "data",
                                "relationType": false,
                                "invisible": false,
                                "visibleGridView": false,
                                "visibleSearch": false
                            }
                        ],
                        "locked": false
                    },
                    {
                        "fieldtype": "panel",
                        "labelWidth": 250,
                        "layout": null,
                        "name": "Mediathek",
                        "type": null,
                        "region": null,
                        "title": "Mediathek",
                        "width": null,
                        "height": null,
                        "collapsible": false,
                        "collapsed": false,
                        "bodyStyle": "",
                        "datatype": "layout",
                        "permissions": null,
                        "childs": [
                            {
                                "fieldtype": "input",
                                "width": 600,
                                "queryColumnType": "varchar",
                                "columnType": "varchar",
                                "columnLength": 190,
                                "phpdocType": "string",
                                "regex": "",
                                "unique": false,
                                "showCharCount": false,
                                "name": "LIST_PREVIEW_NAME",
                                "title": "List preview name",
                                "tooltip": "",
                                "mandatory": true,
                                "noteditable": false,
                                "index": false,
                                "locked": false,
                                "style": "",
                                "permissions": null,
                                "datatype": "data",
                                "relationType": false,
                                "invisible": false,
                                "visibleGridView": false,
                                "visibleSearch": false
                            },
                            {
                                "fieldtype": "image",
                                "width": 600,
                                "height": "",
                                "uploadPath": "",
                                "queryColumnType": "int(11)",
                                "columnType": "int(11)",
                                "phpdocType": "\\Pimcore\\Model\\Asset\\Image",
                                "name": "LIST_PREVIEW_IMAGE",
                                "title": "List preview image",
                                "tooltip": "",
                                "mandatory": true,
                                "noteditable": false,
                                "index": false,
                                "locked": false,
                                "style": "",
                                "permissions": null,
                                "datatype": "data",
                                "relationType": false,
                                "invisible": false,
                                "visibleGridView": false,
                                "visibleSearch": false
                            }
                        ],
                        "locked": false
                    }
                ],
                "locked": false
            }
        ],
        "locked": false
    },
    "default": 0
}