{
    "id": "18",
    "name": "TradeMarketing",
    "description": "",
    "classId": "300",
    "layoutDefinitions": {
        "fieldtype": "panel",
        "labelWidth": 100,
        "layout": null,
        "name": "pimcore_root",
        "type": null,
        "region": null,
        "title": null,
        "width": null,
        "height": null,
        "collapsible": false,
        "collapsed": false,
        "bodyStyle": null,
        "datatype": "layout",
        "permissions": null,
        "childs": [
            {
                "fieldtype": "panel",
                "labelWidth": 300,
                "layout": null,
                "name": "Meta",
                "type": null,
                "region": null,
                "title": "Meta",
                "width": null,
                "height": null,
                "collapsible": false,
                "collapsed": false,
                "bodyStyle": "",
                "datatype": "layout",
                "permissions": null,
                "childs": [],
                "locked": false
            }
        ],
        "locked": false
    },
    "default": 0
}