{
    "id": "24",
    "name": "Support",
    "description": "",
    "classId": "300",
    "layoutDefinitions": {
        "fieldtype": "panel",
        "labelWidth": 100,
        "layout": null,
        "name": "pimcore_root",
        "type": null,
        "region": null,
        "title": null,
        "width": null,
        "height": null,
        "collapsible": false,
        "collapsed": false,
        "bodyStyle": null,
        "datatype": "layout",
        "permissions": null,
        "childs": [
            {
                "fieldtype": "panel",
                "labelWidth": 300,
                "layout": null,
                "name": "Meta",
                "type": null,
                "region": null,
                "title": "Meta",
                "width": null,
                "height": null,
                "collapsible": false,
                "collapsed": false,
                "bodyStyle": "",
                "datatype": "layout",
                "permissions": null,
                "childs": [
                    {
                        "fieldtype": "input",
                        "width": 500,
                        "queryColumnType": "varchar",
                        "columnType": "varchar",
                        "columnLength": 190,
                        "phpdocType": "string",
                        "regex": "",
                        "unique": false,
                        "showCharCount": false,
                        "name": "GROUP_ID",
                        "title": "GROUP ID",
                        "tooltip": "",
                        "mandatory": false,
                        "noteditable": true,
                        "index": false,
                        "locked": false,
                        "style": "",
                        "permissions": null,
                        "datatype": "data",
                        "relationType": false,
                        "invisible": false,
                        "visibleGridView": false,
                        "visibleSearch": false
                    },
                    {
                        "fieldtype": "input",
                        "width": 500,
                        "queryColumnType": "varchar",
                        "columnType": "varchar",
                        "columnLength": 190,
                        "phpdocType": "string",
                        "regex": "",
                        "unique": false,
                        "showCharCount": false,
                        "name": "PARENT_ID",
                        "title": "ID PARENT GROUP",
                        "tooltip": "",
                        "mandatory": false,
                        "noteditable": true,
                        "index": false,
                        "locked": false,
                        "style": "",
                        "permissions": null,
                        "datatype": "data",
                        "relationType": false,
                        "invisible": false,
                        "visibleGridView": false,
                        "visibleSearch": false
                    },
                    {
                        "fieldtype": "numeric",
                        "width": 500,
                        "defaultValue": null,
                        "queryColumnType": "double",
                        "columnType": "double",
                        "phpdocType": "float",
                        "integer": true,
                        "unsigned": true,
                        "minValue": null,
                        "maxValue": null,
                        "unique": false,
                        "decimalSize": null,
                        "decimalPrecision": null,
                        "name": "GROUP_ORDER",
                        "title": "GROUP ORDER",
                        "tooltip": "",
                        "mandatory": false,
                        "noteditable": false,
                        "index": false,
                        "locked": false,
                        "style": "",
                        "permissions": null,
                        "datatype": "data",
                        "relationType": false,
                        "invisible": false,
                        "visibleGridView": false,
                        "visibleSearch": false
                    },
                    {
                        "fieldtype": "localizedfields",
                        "phpdocType": "\\Pimcore\\Model\\DataObject\\Localizedfield",
                        "childs": [
                            {
                                "fieldtype": "input",
                                "width": 500,
                                "queryColumnType": "varchar",
                                "columnType": "varchar",
                                "columnLength": 190,
                                "phpdocType": "string",
                                "regex": "",
                                "unique": false,
                                "showCharCount": false,
                                "name": "GROUP_NAME",
                                "title": "GROUP NAME",
                                "tooltip": "",
                                "mandatory": true,
                                "noteditable": false,
                                "index": false,
                                "locked": false,
                                "style": "",
                                "permissions": null,
                                "datatype": "data",
                                "relationType": false,
                                "invisible": false,
                                "visibleGridView": false,
                                "visibleSearch": false
                            }
                        ],
                        "name": "localizedfields",
                        "region": null,
                        "layout": null,
                        "title": "",
                        "width": "",
                        "height": "",
                        "maxTabs": null,
                        "labelWidth": null,
                        "hideLabelsWhenTabsReached": null,
                        "fieldDefinitionsCache": null,
                        "tooltip": "",
                        "mandatory": false,
                        "noteditable": false,
                        "index": null,
                        "locked": false,
                        "style": "",
                        "permissions": null,
                        "datatype": "data",
                        "relationType": false,
                        "invisible": false,
                        "visibleGridView": true,
                        "visibleSearch": true
                    },
                    {
                        "fieldtype": "checkbox",
                        "defaultValue": 0,
                        "queryColumnType": "tinyint(1)",
                        "columnType": "tinyint(1)",
                        "phpdocType": "boolean",
                        "name": "EXCLUDE_FROM_CATEGORY_TREE",
                        "title": "EXCLUDE FROM CATEGORY TREE",
                        "tooltip": "",
                        "mandatory": false,
                        "noteditable": true,
                        "index": false,
                        "locked": false,
                        "style": "",
                        "permissions": null,
                        "datatype": "data",
                        "relationType": false,
                        "invisible": false,
                        "visibleGridView": false,
                        "visibleSearch": false
                    }
                ],
                "locked": false
            }
        ],
        "locked": false
    },
    "default": 0
}