{
    "id": "4",
    "name": "test123",
    "description": "",
    "classId": "1007",
    "layoutDefinitions": {
        "fieldtype": "panel",
        "labelWidth": 100,
        "layout": null,
        "name": "pimcore_root",
        "type": null,
        "region": null,
        "title": null,
        "width": null,
        "height": null,
        "collapsible": false,
        "collapsed": false,
        "bodyStyle": null,
        "datatype": "layout",
        "permissions": null,
        "childs": [
            {
                "fieldtype": "tabpanel",
                "name": "cat_assets",
                "type": null,
                "region": null,
                "title": "Katalogassets",
                "width": null,
                "height": null,
                "collapsible": false,
                "collapsed": false,
                "bodyStyle": "",
                "datatype": "layout",
                "permissions": null,
                "childs": [
                    {
                        "fieldtype": "region",
                        "name": "Bilddaten",
                        "type": null,
                        "region": null,
                        "title": "Bilddaten",
                        "width": 900,
                        "height": null,
                        "collapsible": false,
                        "collapsed": false,
                        "bodyStyle": "float:left",
                        "datatype": "layout",
                        "permissions": null,
                        "childs": [
                            {
                                "fieldtype": "panel",
                                "labelWidth": 100,
                                "layout": null,
                                "name": "Infotext",
                                "type": null,
                                "region": "north",
                                "title": "",
                                "width": null,
                                "height": null,
                                "collapsible": false,
                                "collapsed": false,
                                "bodyStyle": "",
                                "datatype": "layout",
                                "permissions": null,
                                "childs": [
                                    {
                                        "fieldtype": "text",
                                        "html": "<div>Copyright Information is by default:<\/div><div>Author: Stanley Black &amp; Decker Inc.<\/div><div>Source: Stanley Black &amp; Decker Inc.<\/div><div>Copyright: Stanley Black &amp; Decker Inc.<\/div><div><br><\/div><div>In the case of different specifications, the fields can be overwritten.<\/div>\u200b",
                                        "renderingClass": "",
                                        "renderingData": "",
                                        "name": "Layout",
                                        "type": null,
                                        "region": null,
                                        "title": "Remarks",
                                        "width": null,
                                        "height": null,
                                        "collapsible": false,
                                        "collapsed": false,
                                        "bodyStyle": "",
                                        "datatype": "layout",
                                        "permissions": null,
                                        "childs": [],
                                        "locked": false
                                    }
                                ],
                                "locked": false
                            },
                            {
                                "fieldtype": "panel",
                                "labelWidth": 100,
                                "layout": "fit",
                                "name": "Logos",
                                "type": null,
                                "region": "center",
                                "title": "",
                                "width": 500,
                                "height": null,
                                "collapsible": false,
                                "collapsed": false,
                                "bodyStyle": "margin:5px",
                                "datatype": "layout",
                                "permissions": null,
                                "childs": [],
                                "locked": false
                            },
                            {
                                "fieldtype": "panel",
                                "labelWidth": 100,
                                "layout": "fit",
                                "name": "Icons",
                                "type": null,
                                "region": "east",
                                "title": "",
                                "width": 700,
                                "height": null,
                                "collapsible": false,
                                "collapsed": false,
                                "bodyStyle": "margin:5px",
                                "datatype": "layout",
                                "permissions": null,
                                "childs": [],
                                "locked": false
                            }
                        ],
                        "locked": false
                    },
                    {
                        "fieldtype": "panel",
                        "labelWidth": 200,
                        "layout": null,
                        "name": "Videodaten",
                        "type": null,
                        "region": null,
                        "title": "Videodaten",
                        "width": null,
                        "height": null,
                        "collapsible": false,
                        "collapsed": false,
                        "bodyStyle": "",
                        "datatype": "layout",
                        "permissions": null,
                        "childs": [
                            {
                                "fieldtype": "text",
                                "html": "<div>Copyright Information is by default:<\/div><div>Author: Stanley Black &amp; Decker Inc.<\/div><div>Source: Stanley Black &amp; Decker Inc.<\/div><div>Copyright: Stanley Black &amp; Decker Inc.<\/div><div><br><\/div><div>In the case of different specifications, the fields can be overwritten.<\/div>\u200b\u200b",
                                "renderingClass": "",
                                "renderingData": "",
                                "name": "Layout",
                                "type": null,
                                "region": null,
                                "title": "Remarks",
                                "width": null,
                                "height": null,
                                "collapsible": false,
                                "collapsed": false,
                                "bodyStyle": "",
                                "datatype": "layout",
                                "permissions": null,
                                "childs": [],
                                "locked": false
                            }
                        ],
                        "locked": false
                    },
                    {
                        "fieldtype": "panel",
                        "labelWidth": 250,
                        "layout": null,
                        "name": "certificates",
                        "type": null,
                        "region": null,
                        "title": "Zertifikate",
                        "width": null,
                        "height": null,
                        "collapsible": false,
                        "collapsed": false,
                        "bodyStyle": "",
                        "datatype": "layout",
                        "permissions": null,
                        "childs": [
                            {
                                "fieldtype": "text",
                                "html": "<div>Copyright Information is by default:<\/div><div>Author: Stanley Black &amp; Decker Inc.<\/div><div>Source: Stanley Black &amp; Decker Inc.<\/div><div>Copyright: Stanley Black &amp; Decker Inc.<\/div><div><br><\/div><div>In the case of different specifications, the fields can be overwritten.<\/div>\u200b\u200b",
                                "renderingClass": "",
                                "renderingData": "",
                                "name": "Layout",
                                "type": null,
                                "region": null,
                                "title": "Remarks",
                                "width": null,
                                "height": null,
                                "collapsible": false,
                                "collapsed": false,
                                "bodyStyle": "",
                                "datatype": "layout",
                                "permissions": null,
                                "childs": [],
                                "locked": false
                            }
                        ],
                        "locked": false
                    },
                    {
                        "fieldtype": "panel",
                        "labelWidth": 250,
                        "layout": null,
                        "name": "data_bundles",
                        "type": null,
                        "region": null,
                        "title": "Datensammlungen",
                        "width": null,
                        "height": null,
                        "collapsible": false,
                        "collapsed": false,
                        "bodyStyle": "",
                        "datatype": "layout",
                        "permissions": null,
                        "childs": [
                            {
                                "fieldtype": "text",
                                "html": "<div>Contains ZIP-Files<\/div><div><ul><li>with XML-Catalogs, <br><\/li><li>Image Collections for XML Catalogs<br><\/li><\/ul><\/div><div><br><\/div><div>Copyright Information is by default:<\/div><div>Author: Stanley Black &amp; Decker Inc.<\/div><div>Source: Stanley Black &amp; Decker Inc.<\/div><div>Copyright: Stanley Black &amp; Decker Inc.<\/div><div><br><\/div><div>In the case of different specifications, the fields can be overwritten.<\/div>\u200b\u200b",
                                "renderingClass": "",
                                "renderingData": "",
                                "name": "Layout",
                                "type": null,
                                "region": null,
                                "title": "Remarks",
                                "width": null,
                                "height": null,
                                "collapsible": false,
                                "collapsed": false,
                                "bodyStyle": "",
                                "datatype": "layout",
                                "permissions": null,
                                "childs": [],
                                "locked": false
                            }
                        ],
                        "locked": false
                    },
                    {
                        "fieldtype": "panel",
                        "labelWidth": 250,
                        "layout": null,
                        "name": "catalog_download",
                        "type": null,
                        "region": null,
                        "title": "Kataloge (PDF\/Excel)",
                        "width": null,
                        "height": null,
                        "collapsible": false,
                        "collapsed": false,
                        "bodyStyle": "",
                        "datatype": "layout",
                        "permissions": null,
                        "childs": [
                            {
                                "fieldtype": "text",
                                "html": "<div>Contains ZIP-Files<\/div><div><ul><li>with XML-Catalogs, <br><\/li><li>Image Collections for XML Catalogs<br><\/li><\/ul><\/div><div><br><\/div><div>Copyright Information is by default:<\/div><div>Author: Stanley Black &amp; Decker Inc.<\/div><div>Source: Stanley Black &amp; Decker Inc.<\/div><div>Copyright: Stanley Black &amp; Decker Inc.<\/div><div><br><\/div><div>In the case of different specifications, the fields can be overwritten.<\/div>\u200b\u200b",
                                "renderingClass": "",
                                "renderingData": "",
                                "name": "Layout",
                                "type": null,
                                "region": null,
                                "title": "Remarks",
                                "width": null,
                                "height": null,
                                "collapsible": false,
                                "collapsed": false,
                                "bodyStyle": "",
                                "datatype": "layout",
                                "permissions": null,
                                "childs": [],
                                "locked": false
                            }
                        ],
                        "locked": false
                    },
                    {
                        "fieldtype": "panel",
                        "labelWidth": 250,
                        "layout": null,
                        "name": "pricelist_download",
                        "type": null,
                        "region": null,
                        "title": "Preislisten (Excel)",
                        "width": null,
                        "height": null,
                        "collapsible": false,
                        "collapsed": false,
                        "bodyStyle": "",
                        "datatype": "layout",
                        "permissions": null,
                        "childs": [
                            {
                                "fieldtype": "text",
                                "html": "<div>Contains ZIP-Files<\/div><div><ul><li>with XML-Catalogs, <br><\/li><li>Image Collections for XML Catalogs<br><\/li><\/ul><\/div><div><br><\/div><div>Copyright Information is by default:<\/div><div>Author: Stanley Black &amp; Decker Inc.<\/div><div>Source: Stanley Black &amp; Decker Inc.<\/div><div>Copyright: Stanley Black &amp; Decker Inc.<\/div><div><br><\/div><div>In the case of different specifications, the fields can be overwritten.<\/div>\u200b\u200b",
                                "renderingClass": "",
                                "renderingData": "",
                                "name": "Layout",
                                "type": null,
                                "region": null,
                                "title": "Remarks",
                                "width": null,
                                "height": null,
                                "collapsible": false,
                                "collapsed": false,
                                "bodyStyle": "",
                                "datatype": "layout",
                                "permissions": null,
                                "childs": [],
                                "locked": false
                            }
                        ],
                        "locked": false
                    }
                ],
                "locked": false
            }
        ],
        "locked": false
    },
    "default": 0
}