{
    "id": "16",
    "description": null,
    "parentClass": null,
    "listingParentClass": null,
    "useTraits": null,
    "listingUseTraits": null,
    "allowInherit": false,
    "allowVariants": false,
    "showVariants": false,
    "layoutDefinitions": {
        "fieldtype": "panel",
        "labelWidth": 100,
        "layout": null,
        "name": "pimcore_root",
        "type": null,
        "region": null,
        "title": null,
        "width": null,
        "height": null,
        "collapsible": false,
        "collapsed": false,
        "bodyStyle": null,
        "datatype": "layout",
        "permissions": null,
        "childs": [
            {
                "fieldtype": "localizedfields",
                "phpdocType": "\\Pimcore\\Model\\DataObject\\Localizedfield",
                "childs": [
                    {
                        "fieldtype": "region",
                        "name": "Layout",
                        "type": "",
                        "region": "center",
                        "title": "",
                        "width": null,
                        "height": 680,
                        "collapsible": false,
                        "collapsed": false,
                        "bodyStyle": "",
                        "datatype": "layout",
                        "permissions": "",
                        "childs": [
                            {
                                "fieldtype": "panel",
                                "labelWidth": 100,
                                "layout": "",
                                "name": "Layout",
                                "type": "",
                                "region": "center",
                                "title": "Base",
                                "width": "",
                                "height": "",
                                "collapsible": false,
                                "collapsed": false,
                                "bodyStyle": null,
                                "datatype": "layout",
                                "permissions": "",
                                "childs": [
                                    {
                                        "fieldtype": "image",
                                        "width": 250,
                                        "height": 150,
                                        "uploadPath": "",
                                        "queryColumnType": "int(11)",
                                        "columnType": "int(11)",
                                        "phpdocType": "\\Pimcore\\Model\\Asset\\Image",
                                        "name": "icon",
                                        "title": "Icon",
                                        "tooltip": "",
                                        "mandatory": false,
                                        "noteditable": false,
                                        "index": false,
                                        "locked": false,
                                        "style": "float:right",
                                        "permissions": "",
                                        "datatype": "data",
                                        "relationType": false,
                                        "invisible": false,
                                        "visibleGridView": false,
                                        "visibleSearch": false
                                    },
                                    {
                                        "fieldtype": "input",
                                        "width": 250,
                                        "queryColumnType": "varchar",
                                        "columnType": "varchar",
                                        "columnLength": 255,
                                        "phpdocType": "string",
                                        "regex": "",
                                        "unique": null,
                                        "showCharCount": null,
                                        "name": "name",
                                        "title": "Name",
                                        "tooltip": "",
                                        "mandatory": false,
                                        "noteditable": false,
                                        "index": false,
                                        "locked": false,
                                        "style": "",
                                        "permissions": "",
                                        "datatype": "data",
                                        "relationType": false,
                                        "invisible": false,
                                        "visibleGridView": true,
                                        "visibleSearch": true
                                    },
                                    {
                                        "fieldtype": "input",
                                        "width": 250,
                                        "queryColumnType": "varchar",
                                        "columnType": "varchar",
                                        "columnLength": 255,
                                        "phpdocType": "string",
                                        "regex": "",
                                        "unique": null,
                                        "showCharCount": null,
                                        "name": "seoname",
                                        "title": "SEO Name",
                                        "tooltip": "",
                                        "mandatory": false,
                                        "noteditable": false,
                                        "index": false,
                                        "locked": false,
                                        "style": "",
                                        "permissions": "",
                                        "datatype": "data",
                                        "relationType": false,
                                        "invisible": false,
                                        "visibleGridView": false,
                                        "visibleSearch": false
                                    },
                                    {
                                        "fieldtype": "wysiwyg",
                                        "width": "",
                                        "height": "",
                                        "queryColumnType": "longtext",
                                        "columnType": "longtext",
                                        "phpdocType": "string",
                                        "toolbarConfig": "",
                                        "name": "description",
                                        "title": "Description",
                                        "tooltip": "",
                                        "mandatory": false,
                                        "noteditable": false,
                                        "index": false,
                                        "locked": false,
                                        "style": "width: 100%",
                                        "permissions": "",
                                        "datatype": "data",
                                        "relationType": false,
                                        "invisible": false,
                                        "visibleGridView": false,
                                        "visibleSearch": false
                                    },
                                    {
                                        "fieldtype": "link",
                                        "queryColumnType": "text",
                                        "columnType": "text",
                                        "phpdocType": "\\Pimcore\\Model\\DataObject\\Data\\Link",
                                        "name": "link",
                                        "title": "Further Details Document (read more)",
                                        "tooltip": "",
                                        "mandatory": false,
                                        "noteditable": false,
                                        "index": false,
                                        "locked": false,
                                        "style": "",
                                        "permissions": "",
                                        "datatype": "data",
                                        "relationType": false,
                                        "invisible": false,
                                        "visibleGridView": false,
                                        "visibleSearch": false
                                    }
                                ],
                                "locked": false
                            },
                            {
                                "fieldtype": "panel",
                                "labelWidth": 100,
                                "layout": "",
                                "name": "Layout",
                                "type": "",
                                "region": "east",
                                "title": "Media",
                                "width": 500,
                                "height": null,
                                "collapsible": false,
                                "collapsed": false,
                                "bodyStyle": "",
                                "datatype": "layout",
                                "permissions": "",
                                "childs": [
                                    {
                                        "fieldtype": "manyToManyRelation",
                                        "width": "",
                                        "height": 200,
                                        "maxItems": "",
                                        "assetUploadPath": "",
                                        "queryColumnType": "text",
                                        "phpdocType": "array",
                                        "relationType": true,
                                        "objectsAllowed": false,
                                        "assetsAllowed": true,
                                        "assetTypes": [
                                            {
                                                "assetTypes": "image"
                                            }
                                        ],
                                        "documentsAllowed": false,
                                        "documentTypes": [],
                                        "lazyLoading": false,
                                        "classes": [],
                                        "pathFormatterClass": null,
                                        "name": "images",
                                        "title": "Images",
                                        "tooltip": "",
                                        "mandatory": false,
                                        "noteditable": false,
                                        "index": false,
                                        "locked": false,
                                        "style": "",
                                        "permissions": "",
                                        "datatype": "data",
                                        "invisible": false,
                                        "visibleGridView": false,
                                        "visibleSearch": false
                                    },
                                    {
                                        "fieldtype": "manyToManyRelation",
                                        "width": "",
                                        "height": 200,
                                        "maxItems": "",
                                        "assetUploadPath": "",
                                        "queryColumnType": "text",
                                        "phpdocType": "array",
                                        "relationType": true,
                                        "objectsAllowed": false,
                                        "assetsAllowed": false,
                                        "assetTypes": [],
                                        "documentsAllowed": true,
                                        "documentTypes": [],
                                        "lazyLoading": false,
                                        "classes": [],
                                        "pathFormatterClass": null,
                                        "name": "documents",
                                        "title": "Documents",
                                        "tooltip": "Link to Documents",
                                        "mandatory": false,
                                        "noteditable": false,
                                        "index": false,
                                        "locked": false,
                                        "style": "",
                                        "permissions": "",
                                        "datatype": "data",
                                        "invisible": false,
                                        "visibleGridView": false,
                                        "visibleSearch": false
                                    },
                                    {
                                        "fieldtype": "manyToManyRelation",
                                        "width": "",
                                        "height": "",
                                        "maxItems": "",
                                        "assetUploadPath": "",
                                        "queryColumnType": "text",
                                        "phpdocType": "array",
                                        "relationType": true,
                                        "objectsAllowed": false,
                                        "assetsAllowed": true,
                                        "assetTypes": [],
                                        "documentsAllowed": false,
                                        "documentTypes": [],
                                        "lazyLoading": false,
                                        "classes": [],
                                        "pathFormatterClass": null,
                                        "name": "videos",
                                        "title": "Videos",
                                        "tooltip": "",
                                        "mandatory": false,
                                        "noteditable": false,
                                        "index": false,
                                        "locked": false,
                                        "style": "",
                                        "permissions": "",
                                        "datatype": "data",
                                        "invisible": false,
                                        "visibleGridView": false,
                                        "visibleSearch": false
                                    },
                                    {
                                        "fieldtype": "manyToManyRelation",
                                        "width": "",
                                        "height": "",
                                        "maxItems": "",
                                        "assetUploadPath": null,
                                        "queryColumnType": "text",
                                        "phpdocType": "array",
                                        "relationType": true,
                                        "objectsAllowed": "",
                                        "assetsAllowed": "1",
                                        "assetTypes": [],
                                        "documentsAllowed": "",
                                        "documentTypes": [],
                                        "lazyLoading": "",
                                        "classes": [],
                                        "pathFormatterClass": null,
                                        "name": "downloads",
                                        "title": "Downloads",
                                        "tooltip": "",
                                        "mandatory": false,
                                        "noteditable": false,
                                        "index": "",
                                        "locked": false,
                                        "style": "",
                                        "permissions": "",
                                        "datatype": "data",
                                        "invisible": false,
                                        "visibleGridView": false,
                                        "visibleSearch": false
                                    }
                                ],
                                "locked": false
                            }
                        ],
                        "locked": false
                    }
                ],
                "name": "localizedfields",
                "region": "",
                "layout": "",
                "title": "",
                "width": "",
                "height": "",
                "maxTabs": null,
                "labelWidth": null,
                "hideLabelsWhenTabsReached": null,
                "fieldDefinitionsCache": null,
                "tooltip": "",
                "mandatory": false,
                "noteditable": false,
                "index": "",
                "locked": false,
                "style": "",
                "permissions": "",
                "datatype": "data",
                "relationType": false,
                "invisible": false,
                "visibleGridView": true,
                "visibleSearch": true
            }
        ],
        "locked": false
    },
    "icon": null,
    "previewUrl": null,
    "group": null,
    "linkGeneratorReference": null,
    "propertyVisibility": {
        "grid": {
            "id": true,
            "path": true,
            "published": true,
            "modificationDate": false,
            "creationDate": false
        },
        "search": {
            "id": true,
            "path": true,
            "published": true,
            "modificationDate": false,
            "creationDate": false
        }
    }
}